{
  "current": {
    "button_border_radius": 4,
    "block_border_radius": "none",
    "vertical_spacing": "medium",
    "heading_color": "#ffffff",
    "text_color": "#ffffff",
    "background": "#000000",
    "secondary_background": "#06121d",
    "success_color": "#ff6a00",
    "error_color": "#de2a2a",
    "header_background": "#000000",
    "footer_background": "#000000",
    "footer_text_color": "#ffffff",
    "primary_button_background": "#ff6a00",
    "secondary_button_background": "#ff6a00",
    "secondary_button_text_color": "#ffffff",
    "product_rating_color": "#ffffff",
    "product_on_sale_accent": "#ff6a00",
    "product_sold_out_accent": "#000000",
    "product_custom_label_background": "#000000",
    "product_custom_label_2_background": "#000000",
    "product_in_stock_text_color": "#000000",
    "product_low_stock_text_color": "#000000",
    "heading_font": "roboto_n3",
    "heading_font_size": "large",
    "heading_text_transform": "uppercase",
    "text_font": "roboto_n3",
    "text_font_size": 17,
    "currency_code_enabled": true,
    "stagger_products_apparition": true,
    "round_color_swatches": true,
    "show_vendor": false,
    "show_secondary_image": true,
    "show_product_rating": false,
    "discount_mode": "percentage",
    "product_color_display": "count",
    "product_image_size": "natural",
    "search_enable_products": true,
    "search_enable_blog_posts": true,
    "search_enable_pages": true,
    "search_enable_collections": true,
    "search_unavailable_products": "hide",
    "cart_type": "message",
    "cart_show_free_shipping_threshold": false,
    "cart_free_shipping_threshold": "0",
    "social_facebook": "https:\/\/www.facebook.com\/KITPluginsOfficial",
    "social_twitter": "https:\/\/twitter.com\/KitPlugins",
    "social_instagram": "https:\/\/www.instagram.com\/kitplugins",
    "favicon": "shopify:\/\/shop_images\/New_Project.png",
    "checkout_sidebar_background_color": "#f5f5f5",
    "checkout_accent_color": "#19242f",
    "checkout_button_color": "#ff6a00",
    "checkout_error_color": "#de2a2a",
    "accent_color": "#405de6",
    "sections": {
      "announcement-bar": {
        "type": "announcement-bar",
        "blocks": {
          "message-1": {
            "type": "message",
            "settings": {
              "text": "FREE Bad*ss Saturation Plugin — Burier 2.0 is here!",
              "learn_more_text": "DOWNLOAD FOR FREE",
              "image": "shopify:\/\/shop_images\/burier-free-saturation-plugin.png",
              "title": "BURIER 2.0 — OUT NOW",
              "content": "<p>BRUTALLY updated with 3 customizable color options, HD-enhanced resizable GUI, and sonically rich saturation that SLAYS on drums, bass, vocals, and more!<\/p>",
              "button_text": "GET BURIER FOR FREE NOW",
              "button_link": "shopify:\/\/pages\/downloads",
              "button_class": "burier-signup"
            }
          }
        },
        "block_order": [
          "message-1"
        ],
        "settings": {
          "announcement_bar_position": "sticky_desktop",
          "announcement_text_size": "normal",
          "autoplay": false,
          "cycle_speed": 5,
          "background": "#06121d",
          "text_color": "#ffffff",
          "button_background": "#ff6a00",
          "button_text_color": "#ffffff"
        }
      },
      "header": {
        "type": "header",
        "settings": {
          "enable_sticky_header": true,
          "logo": "shopify:\/\/shop_images\/logo_532514a2-1795-4f55-8e5b-e03ea4135561.png",
          "logo_max_width": 200,
          "mobile_logo_max_width": 140,
          "navigation_menu": "main-menu-new",
          "sidebar_navigation_menu": "",
          "header_layout": "logo_left_navigation_center",
          "show_icons": false,
          "reduce_desktop_padding": true,
          "show_locale_selector": true,
          "show_currency_selector": true,
          "enable_transparent_header": false,
          "transparent_header_text_color": "#ffffff",
          "search_menu": ""
        }
      },
      "footer": {
        "type": "footer",
        "blocks": {
          "afe623cc-6721-429b-96c5-a43d9c77cb9b": {
            "type": "image",
            "settings": {
              "image_width": 150
            }
          },
          "links": {
            "type": "links",
            "settings": {
              "menu": "links"
            }
          },
          "newsletter": {
            "type": "newsletter",
            "settings": {
              "title": "NEVER MISS A NEW RELEASE OR UPDATE",
              "content": "<p>EXCLUSIVE discounts, FREE full-length mix tutorials, FREE plugins, and more!<\/p>"
            }
          },
          "social_media": {
            "type": "social_media",
            "settings": {
              "title": "Stay connected",
              "content": ""
            }
          }
        },
        "block_order": [
          "afe623cc-6721-429b-96c5-a43d9c77cb9b",
          "links",
          "newsletter",
          "social_media"
        ],
        "settings": {
          "show_payment_icons": false,
          "show_currency_selector": false,
          "show_locale_selector": false,
          "show_cookie_bar": false,
          "cookie_bar_title": "",
          "cookie_bar_content": ""
        }
      },
      "popup": {
        "type": "popup",
        "settings": {
          "enable": false,
          "apparition_delay": 5,
          "show_only_on_index": true,
          "show_only_for_visitors": true,
          "show_only_once": true,
          "image_position": "left",
          "title": "Get 10% off",
          "content": "<p>Promotions, new products and sales. Directly to your inbox.<\/p>"
        }
      },
      "mini-cart": {
        "type": "mini-cart",
        "settings": {
          "show_order_note": true,
          "show_checkout_button": true,
          "empty_button_link": "shopify:\/\/collections\/all",
          "show_recommendations": true,
          "recommendations_title": "You may dig these as well"
        }
      },
      "static-text-with-icons": {
        "type": "static-text-with-icons",
        "blocks": {
          "static-text-with-icons-0": {
            "type": "item",
            "settings": {
              "icon": "picto-box",
              "title": "Free shipping",
              "content": "<p>Free worldwide shipping and returns - customs and duties taxes included<\/p>"
            }
          },
          "static-text-with-icons-1": {
            "type": "item",
            "settings": {
              "icon": "picto-phone",
              "title": "Customer service",
              "content": "<p>We are available from monday to friday to answer your questions.<\/p>"
            }
          },
          "static-text-with-icons-2": {
            "type": "item",
            "settings": {
              "icon": "picto-lock",
              "title": "Secure payment",
              "content": "<p>Your payment information is processed securely.<\/p>"
            }
          },
          "static-text-with-icons-3": {
            "type": "item",
            "settings": {
              "icon": "picto-email",
              "title": "Contact us",
              "content": "<p>Need to contact us ? Just send us an e-mail at info@yourstore.com<\/p>"
            }
          }
        },
        "block_order": [
          "static-text-with-icons-0",
          "static-text-with-icons-1",
          "static-text-with-icons-2",
          "static-text-with-icons-3"
        ],
        "settings": {
          "show_section": false,
          "background": "rgba(0,0,0,0)",
          "text_color": "rgba(0,0,0,0)"
        }
      },
      "static-newsletter": {
        "type": "static-newsletter",
        "settings": {
          "show_section": false,
          "reveal_on_scroll": true,
          "subheading": "Subscribe to our newsletter",
          "content": "<p>Promotions, new products and sales. Directly to your inbox.<\/p>",
          "text_position": "right",
          "text_alignment": "left",
          "text_background": "rgba(0,0,0,0)",
          "text_color": "rgba(0,0,0,0)",
          "button_background": "rgba(0,0,0,0)",
          "button_text_color": "rgba(0,0,0,0)"
        }
      }
    },
    "content_for_index": []
  },
  "presets": {
    "Carbon": {
      "button_border_radius": 0,
      "block_border_radius": "none",
      "heading_color": "#282828",
      "text_color": "#282828",
      "secondary_background": "#f5f5f5",
      "success_color": "#2e9e7b",
      "error_color": "#de2a2a",
      "header_background": "#282828",
      "footer_background": "#282828",
      "footer_text_color": "#ffffff",
      "primary_button_background": "#405de6",
      "secondary_button_background": "#f3ff34",
      "secondary_button_text_color": "#282828",
      "product_on_sale_accent": "#de2a2a",
      "product_custom_label_background": "#405de6",
      "product_custom_label_2_background": "#f3ff34",
      "product_in_stock_text_color": "#2e9e7b",
      "product_low_stock_text_color": "#de2a2a",
      "heading_font": "zurich_extended_n8",
      "heading_font_size": "medium",
      "heading_text_transform": "uppercase",
      "text_font": "zurich_n4",
      "text_font_size": 15,
      "currency_code_enabled": false,
      "stagger_products_apparition": true,
      "round_color_swatches": false,
      "show_vendor": false,
      "show_secondary_image": true,
      "product_color_display": "count",
      "product_image_size": "natural",
      "show_product_rating": false,
      "cart_type": "message",
      "cart_show_free_shipping_threshold": true,
      "accent_color": "#405de6",
      "checkout_sidebar_background_color": "#f5f5f5",
      "checkout_accent_color": "#282828",
      "checkout_button_color": "#405de6",
      "checkout_error_color": "#de2a2a",
      "sections": {
        "announcement-bar": {
          "type": "announcement-bar",
          "blocks": {
            "message-1": {
              "type": "message",
              "settings": {}
            }
          },
          "block_order": [
            "message-1"
          ],
          "settings": {
            "announcement_bar_position": "non_sticky",
            "announcement_text_size": "normal",
            "autoplay": true,
            "cycle_speed": 5,
            "background": "#f3ff34",
            "text_color": "#282828",
            "button_background": "#282828",
            "button_text_color": "#ffffff"
          }
        },
        "header": {
          "type": "header",
          "settings": {
            "enable_sticky_header": true,
            "navigation_menu": "main-menu",
            "header_layout": "logo_left_navigation_center",
            "show_icons": false,
            "reduce_desktop_padding": false,
            "enable_transparent_header": false,
            "transparent_header_text_color": "#ffffff"
          }
        },
        "footer": {
          "type": "footer",
          "blocks": {
            "text": {
              "type": "text",
              "settings": {}
            },
            "links": {
              "type": "links",
              "settings": {
                "menu": "footer"
              }
            },
            "newsletter": {
              "type": "newsletter",
              "settings": {}
            },
            "social_media": {
              "type": "social_media",
              "settings": {}
            }
          },
          "block_order": [
            "text",
            "links",
            "newsletter",
            "social_media"
          ],
          "settings": {}
        }
      }
    },
    "Ivory": {
      "button_border_radius": 4,
      "block_border_radius": "small",
      "heading_color": "#1a1a1a",
      "text_color": "#1a1a1a",
      "secondary_background": "#f5f1ec",
      "success_color": "#2e9e7b",
      "error_color": "#de2a2a",
      "header_background": "#56112a",
      "header_text_color": "#ffffff",
      "footer_background": "#56112a",
      "footer_text_color": "#ffffff",
      "primary_button_background": "#56112a",
      "primary_button_text_color": "#ffffff",
      "secondary_button_background": "#f7aea6",
      "secondary_button_text_color": "#56112a",
      "product_on_sale_accent": "#913b59",
      "product_custom_label_background": "#405de6",
      "product_custom_label_2_background": "#f3e5b6",
      "product_in_stock_text_color": "#2e9e7b",
      "product_low_stock_text_color": "#de2a2a",
      "heading_font": "itc_caslon_no_224_n5",
      "heading_font_size": "medium",
      "heading_text_transform": "normal",
      "text_font": "avenir_next_n4",
      "text_font_size": 15,
      "stagger_products_apparition": true,
      "round_color_swatches": true,
      "show_vendor": false,
      "show_secondary_image": true,
      "product_color_display": "count",
      "product_image_size": "natural",
      "cart_type": "drawer",
      "accent_color": "#405de6",
      "checkout_sidebar_background_color": "#f6f3ed",
      "checkout_accent_color": "#353535",
      "checkout_button_color": "#353535",
      "checkout_error_color": "#de2a2a",
      "sections": {
        "announcement-bar": {
          "type": "announcement-bar",
          "blocks": {
            "message-1": {
              "type": "message",
              "settings": {}
            }
          },
          "block_order": [
            "message-1"
          ],
          "settings": {
            "announcement_bar_position": "non_sticky",
            "announcement_text_size": "small",
            "autoplay": true,
            "cycle_speed": 5,
            "background": "#f7aea6",
            "text_color": "#56112a",
            "button_background": "#56112a",
            "button_text_color": "#ffffff"
          }
        },
        "header": {
          "type": "header",
          "settings": {
            "enable_sticky_header": true,
            "navigation_menu": "main-menu",
            "header_layout": "logo_center_navigation_inline",
            "show_icons": false,
            "reduce_desktop_padding": false,
            "enable_transparent_header": false,
            "transparent_header_text_color": "#ffffff"
          }
        },
        "footer": {
          "type": "footer",
          "blocks": {
            "text": {
              "type": "text",
              "settings": {}
            },
            "links": {
              "type": "links",
              "settings": {
                "menu": "footer"
              }
            },
            "newsletter": {
              "type": "newsletter",
              "settings": {}
            },
            "social_media": {
              "type": "social_media",
              "settings": {}
            }
          },
          "block_order": [
            "text",
            "links",
            "newsletter",
            "social_media"
          ],
          "settings": {}
        }
      }
    }
  }
}