{
  "sections": {
    "main": {
      "type": "main-page",
      "disabled": true,
      "settings": {
        "show_title": false,
        "page_width": "medium"
      }
    },
    "1634158517f3510d9c": {
      "type": "image-with-text",
      "blocks": {
        "1634158517f3510d9c-0": {
          "type": "item",
          "settings": {
            "image": "shopify:\/\/shop_images\/Kemper_Box_Centered.png",
            "tab_label": "",
            "subheading": "AVAILABLE NOW — $49.00",
            "title": "BLACKBIRD HIGH GAIN KEMPER PACK",
            "content": "<p>RIPPING HIGH-GAIN TONES FROM ONE OF THE WORLD’S MOST ICONIC STUDIOS<\/p><p>For the first time EVER, we’ve teamed up with Blackbird Studio to create the monumental <strong>Blackbird High Gain Kemper Pack!<\/strong><\/p><p><strong>Developed in THE legendary studio using some of the best analog signal chains on the planet,<\/strong> each profile was hand-crafted by John McBride and his team from a curated selection of Blackbird’s awe-inspiring amps heard on countless hit records.<\/p>",
            "button_text": "BUY NOW FOR $49",
            "button_link": "shopify:\/\/products\/blackbird-high-gain-profile-pack",
            "button_add_to_cart": true,
            "button_class": ""
          }
        }
      },
      "block_order": [
        "1634158517f3510d9c-0"
      ],
      "settings": {
        "reveal_on_scroll": true,
        "background_type": "full_width",
        "background_overlap": "both",
        "image_position": "left",
        "cycle_speed": 3,
        "accent_background": "#000000",
        "text_color": "rgba(0,0,0,0)",
        "button_background": "rgba(0,0,0,0)",
        "button_text_color": "rgba(0,0,0,0)"
      }
    },
    "16343182189bdf0307": {
      "type": "rich-text",
      "settings": {
        "subheading": "Stay tuned",
        "title": "NEW PACKS COMING SOON",
        "content": "",
        "button_text": "",
        "button_link": "",
        "button_add_to_cart": true,
        "button_class": "",
        "background_type": "full_width",
        "text_width": "large",
        "text_position": "center",
        "text_alignment": "center",
        "background": "#06121d",
        "text_color": "rgba(0,0,0,0)",
        "button_background": "rgba(0,0,0,0)",
        "button_text_color": "rgba(0,0,0,0)"
      }
    },
    "163423069900bf0aee": {
      "type": "newsletter",
      "settings": {
        "reveal_on_scroll": true,
        "image": "shopify:\/\/shop_images\/bb-bg.png",
        "subheading": "NEVER MISS A GAME-CHANGING NEW RELEASE OR UPDATE",
        "content": "<p>Get EXCLUSIVE discounts, FREE full-length mix tutorials, FREE plugins, and some other pretty rad sh*t that we currently aren’t at liberty to discuss.<\/p>",
        "text_position": "center",
        "text_alignment": "center",
        "text_background": "rgba(0,0,0,0)",
        "text_color": "rgba(0,0,0,0)",
        "button_background": "rgba(0,0,0,0)",
        "button_text_color": "rgba(0,0,0,0)"
      }
    }
  },
  "order": [
    "main",
    "1634158517f3510d9c",
    "16343182189bdf0307",
    "163423069900bf0aee"
  ]
}