{
  "sections": {
    "main": {
      "type": "main-page",
      "disabled": true,
      "settings": {
        "show_title": false,
        "page_width": "medium"
      }
    },
    "1634241509aff06d69": {
      "type": "contact-form",
      "settings": {
        "title": "How can we help",
        "content": "<p><em>Most issues are resolved within 24-48 hours.<\/em><\/p>",
        "text_1_heading": "",
        "text_1_text": "",
        "text_2_heading": "",
        "text_2_text": "",
        "background": "rgba(0,0,0,0)",
        "text_color": "rgba(0,0,0,0)",
        "button_background": "rgba(0,0,0,0)",
        "button_text_color": "rgba(0,0,0,0)"
      }
    }
  },
  "order": [
    "main",
    "1634241509aff06d69"
  ]
}