{
  "sections": {
    "main": {
      "type": "main-page",
      "disabled": true,
      "settings": {
        "show_title": false,
        "page_width": "medium"
      }
    },
    "1634158517f3510d9c": {
      "type": "image-with-text",
      "blocks": {
        "1634158517f3510d9c-0": {
          "type": "item",
          "settings": {
            "image": "shopify:\/\/shop_images\/unnamed_1200x_84572096-6f46-4874-9467-1287303a9b2a.png",
            "tab_label": "",
            "subheading": "AVAILABLE NOW — $99.00",
            "title": "BB N105 Channel Strip",
            "content": "<p>Hear your mixes through this iconic console emulation today! Punch, depth, saturation, and legendary tonal impact. It's ALL here. Analog magic in its purest form.<\/p>",
            "button_text": "BUY NOW FOR $99",
            "button_link": "shopify:\/\/products\/kit-bb-n105",
            "button_add_to_cart": true,
            "button_class": ""
          }
        }
      },
      "block_order": [
        "1634158517f3510d9c-0"
      ],
      "settings": {
        "reveal_on_scroll": true,
        "background_type": "full_width",
        "background_overlap": "image",
        "image_position": "left",
        "cycle_speed": 3,
        "accent_background": "#000000",
        "text_color": "rgba(0,0,0,0)",
        "button_background": "rgba(0,0,0,0)",
        "button_text_color": "rgba(0,0,0,0)"
      }
    },
    "16343137850d549fdd": {
      "type": "image-with-text",
      "blocks": {
        "16343137850d549fdd-0": {
          "type": "item",
          "settings": {
            "image": "shopify:\/\/shop_images\/Burier_Box_Square_Centered_1200x_138402d6-8e36-4c71-8e84-0f1a1fbcc734.png",
            "tab_label": "",
            "subheading": "Available Now — FREE",
            "title": "Burier: Free Saturation Plugin",
            "content": "<p>3 customizable color options, HD-enhanced resizable GUI, and sonically rich saturation that SLAYS on drums, bass, vocals, and more! 100% FREE.<\/p>",
            "button_text": "DOWNLOAD NOW FOR FREE",
            "button_link": "\/pages\/downloads#burier",
            "button_add_to_cart": false,
            "button_class": ""
          }
        }
      },
      "block_order": [
        "16343137850d549fdd-0"
      ],
      "settings": {
        "reveal_on_scroll": true,
        "background_type": "full_width",
        "background_overlap": "image",
        "image_position": "right",
        "cycle_speed": 8,
        "accent_background": "#000000",
        "text_color": "rgba(0,0,0,0)",
        "button_background": "rgba(0,0,0,0)",
        "button_text_color": "rgba(0,0,0,0)"
      }
    },
    "163431403746cea8db": {
      "type": "image-with-text",
      "blocks": {
        "163431403746cea8db-0": {
          "type": "item",
          "settings": {
            "image": "shopify:\/\/shop_images\/Core_Series_Box_Centered.png",
            "tab_label": "",
            "subheading": "Coming soon",
            "title": "CORE SERIES",
            "content": "<p>YOUR next EARTH-SHATTERING mix starts here with an ultra-transparent EQ and transformer-modeled compressor that punches WAY above its weight class!<\/p>",
            "button_text": "BE THE FIRST TO KNOW",
            "button_link": "",
            "button_add_to_cart": false,
            "button_class": "core-signup"
          }
        }
      },
      "block_order": [
        "163431403746cea8db-0"
      ],
      "settings": {
        "reveal_on_scroll": true,
        "background_type": "full_width",
        "background_overlap": "image",
        "image_position": "left",
        "cycle_speed": 8,
        "accent_background": "rgba(0,0,0,0)",
        "text_color": "rgba(0,0,0,0)",
        "button_background": "rgba(0,0,0,0)",
        "button_text_color": "rgba(0,0,0,0)"
      }
    },
    "1634314292a1633b8d": {
      "type": "image-with-text",
      "blocks": {
        "1634314292a1633b8d-0": {
          "type": "item",
          "settings": {
            "image": "shopify:\/\/shop_images\/Drum_Box_Centered.png",
            "tab_label": "",
            "subheading": "COMING SOON",
            "title": "KIT DRUMS",
            "content": "<p>3 world-class kits and DOZENS of mix-ready presets. Features a virtual drum mixing console with mic level adjustments, panning, saturation, EQ, compression, reverb, and more!<\/p>",
            "button_text": "BE THE FIRST TO KNOW",
            "button_link": "shopify:\/\/pages\/newsletter-signup",
            "button_add_to_cart": false,
            "button_class": "core-signup"
          }
        }
      },
      "block_order": [
        "1634314292a1633b8d-0"
      ],
      "settings": {
        "reveal_on_scroll": true,
        "background_type": "full_width",
        "background_overlap": "image",
        "image_position": "right",
        "cycle_speed": 8,
        "accent_background": "rgba(0,0,0,0)",
        "text_color": "rgba(0,0,0,0)",
        "button_background": "rgba(0,0,0,0)",
        "button_text_color": "rgba(0,0,0,0)"
      }
    },
    "163423069900bf0aee": {
      "type": "newsletter",
      "settings": {
        "reveal_on_scroll": true,
        "image": "shopify:\/\/shop_images\/kit-plugins.png",
        "subheading": "NEVER MISS A GAME-CHANGING NEW RELEASE OR UPDATE",
        "content": "<p>Get EXCLUSIVE discounts, FREE full-length mix tutorials, FREE plugins, and some other pretty rad sh*t that we currently aren’t at liberty to discuss.<\/p>",
        "text_position": "center",
        "text_alignment": "center",
        "text_background": "rgba(0,0,0,0)",
        "text_color": "rgba(0,0,0,0)",
        "button_background": "rgba(0,0,0,0)",
        "button_text_color": "rgba(0,0,0,0)"
      }
    }
  },
  "order": [
    "main",
    "1634158517f3510d9c",
    "16343137850d549fdd",
    "163431403746cea8db",
    "1634314292a1633b8d",
    "163423069900bf0aee"
  ]
}