{
  "sections": {
    "main": {
      "type": "main-page",
      "disabled": true,
      "settings": {
        "show_title": false,
        "page_width": "medium"
      }
    },
    "16343201006294099c": {
      "type": "rich-text",
      "settings": {
        "subheading": "",
        "title": "Privacy Policy Applicable to Users of KIT Plugins",
        "content": "<p>KIT Plugins LLC (“Kit Plugins” “We,” “Us” or “Our”) owns and operates the website, www.kitplugins.com (the “Website” or the “Site”). Kit Plugins recognizes the importance of safeguarding the personal information provided to us by the users of our Website. We are committed to safeguarding that personal information and have implemented this privacy policy (the “Policy”) and internal policies and practices to keep your personal and financial information secure.<\/p><p>The Policy covers our treatment and use of personally identifiable information and\/or personal data that is collected via the Website (the “Personal Information”) from Registered Users (as defined below) when such Registered Users electronically communicate with or otherwise access the Website. This Privacy Policy covers only Personal Information that is collected through the Website and does not govern Personal Information collected from any other source or in any other manner.<\/p><p>You are responsible for making sure that you are aware of our most current Privacy Policy. You can tell when we make changes to this Policy by visiting the page you’re reading now and referring to the “Last Updated” date at the top of this page to learn when this Policy was last revised.<\/p><p>The Privacy Policy is incorporated by reference into and made a part of our Terms and Conditions of Use of the Website, and explains how Users’ information and data is used:<\/p><p>California Privacy Rights<\/p><p>Collection and Use of Information<\/p><p>Collection of Information<\/p><p>Collection of Personal Information<\/p><p>Financial Information<\/p><p>IP Address<\/p><p>Other Information<\/p><p>Use of Cookies, Plug-ins and Web Beacons; Use of Analytics<\/p><p>Do Not Track Signals<\/p><p>Your Consent<\/p><p>Use of Information<\/p><p>In General<\/p><p>Opting In and Opting Out of Electronic Communications<\/p><p>Lawful Access, Legal Action and Investigations<\/p><p>Disclosure of Personal Information to Non-Affiliated Third Parties<\/p><p>Acquisition of Business<\/p><p>Retention of Personal Information<\/p><p>Links to Other Websites<\/p><p>Information Storage and Protection<\/p><p>Options to Review and Opt-Out Choices<\/p><p>Changes in Policy<\/p><p>Governing Law<\/p><p>Contact Us<\/p><p><strong>California Privacy<\/strong><\/p><p>Rights Under California law, California residents who have provided personally identifiable information to a company may have the right to request a list of all third parties to whom that company had disclosed such information for the third parties’ direct marketing purposes during the preceding calendar year, along with a list of the categories of Personal Information that have been so disclosed. Kit Plugins only shares users’ Personal Information, including but not limited to e-mail addresses, with third parties with your consent, and gives you the right to opt out of having your Personal Information disclosed to third parties. However, Kit Plugins does not sell your Personal Information to third parties or share your Personal Information to third parties for the third parties’ direct marketing purposes. If you are a California resident who would like information on how to exercise your rights concerning third party disclosures under California law, you may send an email to info@kitplugins.com. For avoidance of doubt, this provision is made applicable to all Registered Users of the Website who want to request information about our use of their Personal Information, whether or not such user resides in California<\/p><p><strong>Collection and Use of Information<\/strong><\/p><p><span style=\"text-decoration:underline\">The Personal Information We Collect.<\/span> This Policy applies to all information collected by or submitted to or through the Website. We consider “personal information” to mean information about an identifiable individual. As part of the registration process, you will create an account (“Account”) and will be asked to provide a variety of information which may include, but is not limited to, your name, mailing address, email address, and phone number. You will also be asked to provide a user name when you create an Account. Once you have created an Account, you are deemed a “Registered User.”<\/p><p><span style=\"text-decoration:underline\">Financial Information.<\/span> Kit Plugins may require billing and payment information such as credit and debit card information when license\/download software from the Website and\/or create an Account. However, all payment transactions entered into on the Website are processed by Shopify, a third-party payment processor. You will provide your payment information to Shopify, and Shopify’s Privacy Policy and Terms of Service will govern use and disclosure of that information. We encourage you to read carefully Shopify’s Privacy Policy (https:\/\/www.shopify.com\/legal\/privacy) and Terms of Service (https:\/\/www.shopify.com\/legal\/terms) (collectively, “Shopify’s Policies”).<\/p><p><span style=\"text-decoration:underline\">IP Address.<\/span> An IP (Internet Protocol) address is a number that is automatically assigned to your computer by your internet service provider when you log on. Your IP address is not linked to your Personal Information but Kit Plugins does reserve the right to use IP addresses to identify individuals who threaten the Website or other Website users or visitors. IP addresses may also be used to help diagnose problems with the Website and to gather broad anonymized demographic information about users of its Website.<\/p><p><span style=\"text-decoration:underline\">Other Information<\/span> When you access the Website, we will automatically receive some information about your use of the service. The type of information that is automatically collected by Kit Plugins includes such things as the date and time of access of the Website, the Internet protocol (IP) address of the computer that you are using, the domain and host from which you access the Internet, your browser software and operating system, the referring website address, and the specific activities you are engaged in while visiting the Site. This aggregate tracking information is used to help us improve and enhance the website experience for all of its Registered Users. The information we collect in this manner is usually anonymized, and we will not identify you from this data, subject to a need to do so to protect the Site and\/or other users.<\/p><p><strong>Use of Cookies and Web Beacons; Use of Google Analytics.<\/strong><\/p><p>The Website may make use of: (i) “cookies” - small data files which we may send to your computer on the basis of the information that we have collected about your visit; and (ii) “web beacons” – small strings of code that provide a graphic image that surveys visitors’ internet activity. They contain information allowing us to recognize when you are visiting the Website and to keep track of your activities on the Site and your preferences. Through the use of cookies and web beacons, we also may automatically collect information about your online activity on our Website, such as the links you click and the searches you conduct on our Website. Cookies are stored in your computer’s browser or on your hard drive and can then be retrieved by the Website.<\/p><p>If you want to delete any cookies that were already sent to your computer, please refer to your web browser’s “Help” facility. In addition, most web browsers can be set to prevent you from receiving new cookies, notify you before accepting cookies or disable cookies altogether. Details about this can normally be found in the “Help” facility provided with your browser. Please note that if you disable cookies you may not be able to take advantage of some of the Site's interactive functionality.<\/p><p><strong>Analytics Tools<\/strong><\/p><p>Kit Plugins may use certain analytics tools, including Google Analytics. Analytics tools help website and mobile application owners understand how visitors engage with their websites. We can view a variety of reports about how visitors interact with our Website so we can improve it. Google Analytics collects information anonymously. Google Analytics uses cookies, and IP addresses, and reports website trends without identifying individual visitors. For more information related to Google Analytics, click here: <a href=\"http:\/\/www.google.com\/analytics\/learn\/privacy.html\">http:\/\/www.google.com\/analytics\/learn\/privacy.html<\/a>. You can opt-out of Google Analytics by installing the Google Analytics Opt-out Browser Add-On. For information about, and to install, the Google Analytics Opt-out Browser Add-on, click here: <a href=\"https:\/\/tools.google.com\/dlpage\/gaoptout?hl=en\">https:\/\/tools.google.com\/dlpage\/gaoptout?hl=en<\/a><\/p><p><strong>Do Not Track Signals<\/strong><\/p><p>Certain web browsers provide users with an option by which you may have your browser send a “Do Not Track” signal to websites that you are visiting, advising the recipient websites that you do not want to have your online activity tracked. However, the way browsers communicate such “Do Not Track” signals is not yet uniform and, accordingly, our Website does not take any action in response to such signals. In the event a final standard is developed and accepted, we may reassess how we should respond to such signals.<\/p><p><strong>Your Consent<\/strong><\/p><p>We only collect, use and\/or disclose your Personal Information with your consent. Your consent may be implied from the circumstances or may be expressly given for a particular purpose. We may request your consent to use your Personal Information for a particular purpose when we collect such information. Additionally, when you submit your Personal Information to us to become a Registered User of our services, you are consenting to the collection of your Personal Information for the purposes identified or apparent at the time of collection and\/or as otherwise described in this Privacy Policy. You can withdraw your consent by following the Opt-Out procedures set forth in this Policy and\/or by contacting us at info@kitplugins.com<\/p><p>When you register for an Account through the Website, we will provide you with the opportunity to receive information from us about services, products, information and\/or offers that we think might be of interest to you. If you no longer want to receive such information, follow the instructions set forth in the <strong>Opting In and Opting Out of Electronic Communications<\/strong> section in this Policy. We do not share your personal information with third parties for marketing or other purposes, but if we were to do so in the future, we would first obtain your consent.<\/p><p>You must be 16 years of age to use this Site. Kit Plugins does not knowingly collect or maintain any Personal Information from children under the age of 13, and no part of any of the Site is designed with the purpose of attracting such children.<\/p><p>If you use the Website from any country outside the United States, the various communications will necessarily result in the transfer of information across international boundaries. By visiting the Website, you consent to these transfers.<\/p><p><strong>Use of Information<\/strong><\/p><p><span style=\"text-decoration:underline\">In General.<\/span> We use the Personal Information you provide to us for the purpose of communicating with you in connection with Kit Plugins and your license and use of the software available through the Website. It may also be used in the following ways:<\/p><p>to deliver materials, information and services which may be of interest to you,<\/p><p>to give you notice of and\/or resolve any problems that may arise in connection with our services,<\/p><p>to provide customer service and support for the licensed software,<\/p><p>to better understand the needs and interests of our customers,<\/p><p>to analyze the success of our services and Website and for research and development purposes,<\/p><p>to manage the Website's interactive functionality,<\/p><p>to help us improve and enhance the Website experience for all of its visitors, and customize the content on our Website, for compliance with our legal and regulatory obligations, which we may do without your consent,<\/p><p>as otherwise reasonably required to provide customer services and maintain the Website, to investigate potential breaches of the Terms and Conditions of Use of the Website,<\/p><p>for any other purpose outlined in this Privacy Policy and\/or the Terms and Conditions of which this Privacy Policy is a part, and<\/p><p>as otherwise permitted by law.<\/p><p>We may also use your Personal Information to contact you via direct postal mail and\/or electronically and to help us and our commercial partners, and services providers deliver information to you, and for other purposes as are reasonably necessary to provide the services requested by you. You will be given the opportunity to opt-out of receiving future mailings or other messages each time you receive such communications from us by following the instructions in the e-mail or other message you receive from us or by following the instructions set forth in the <strong>Opting In and Opting Out of Electronic Communications section in this Policy.<\/strong><\/p><p><span style=\"text-decoration:underline\">Opting In and Opting Out of Electronic Communications.<\/span> At certain points where Personal Information is collected on our Website, there may be a box to indicate that you wish to receive certain information or communications from us. You may opt-out of receiving any such communications in the future at any time. In all of our electronic communications you will be given the opportunity to opt out of receiving future communications. You may also contact us at info@kitplugins.com to opt out of receiving future information or communications<\/p><p><span style=\"text-decoration:underline\">Lawful Access, Legal Action and Investigations.<\/span> Your Personal Information may otherwise be disclosed to non-affiliated third parties with your consent, or to comply with, applicable laws and regulations. Your Personal Information is transmitted and stored only on servers located in the U.S. We may disclose Personal Information if we believe it is necessary to investigate, prevent, or take action regarding suspected illegal activities or fraud, situations involving the physical safety of any person, violations of our Terms and Conditions of Use, or otherwise in accordance with applicable law<\/p><p><span style=\"text-decoration:underline\">Disclosure of Personal Information to Non-Affiliated Third Parties.<\/span> In addition to the above disclosures, we may share your Personal Information, without restriction, with companies and organizations that we retain to perform services for us, such as those that provide data processing, computer software maintenance and development, and companies providing professional, legal or accounting advice to us. In such situations, we require that these companies and organizations agree to (a) maintain the confidentiality of the Personal Information, and (b) limit the use of such Personal Information to the purposes for which it was provided. We will not sell, rent or market Personal Information collected on this Website to non-affiliated third parties for their marketing purposes, unless we have your consent. However, we may disclose aggregated statistics about visitors to the Website, along with anonymous information concerning individual users of the Website. We may aggregate anonymized information with additional information collected from the Site and from other sources. We may share anonymized information (including aggregate information) we collect regarding our users with third parties (such as advisors, and\/or consultants) for various business purposes including conducting general business analysis, and developing website content and services.<\/p><p><span style=\"text-decoration:underline\">Acquisition of Business.<\/span> In the event that Kit Plugins or an affiliate of Kit Plugins is involved in a merger, acquisition, consolidation, restructuring, reorganization, liquidation, sale or similar transaction relating to any portion of its business and\/or assets, or in the unlikely event that Kit Plugins goes out of business or enters bankruptcy, each User hereby acknowledges and agrees that the Website, all data collected on the Website (including Personal Information still within our possession, custody or control), and any of our rights and obligations under this Privacy Policy may be included in the assets of, and\/or transferred pursuant to, such transaction, and that any acquirer or successor (or a third party through bankruptcy) of Kit Plugins may continue to use the Personal Information as set forth in this Privacy Policy. If that occurs, a notice will be posted to such effect on the Website and\/or notification will be provided by any other media or contact method as may be required by applicable laws and regulations.<\/p><p><span style=\"text-decoration:underline\">Retention of Personal Information.<\/span> Personal Information is retained to deliver our services, to otherwise fulfill identified or apparent purposes, and Personal Information may be retained for record-keeping. At some point Kit Plugins may elect to destroy, erase or anonymize your Personal Information. Once anonymized, we undertake not to re-identify the information.<\/p><p>You may have the right to request access to the Personal Information that we hold about you, which includes the right to amend, correct or delete that information, as appropriate, and to receive an account of how it has been used and a list of the organizations to whom it has been disclosed. In some circumstances, you may have the right to object to our use of that Personal Information. You may request access and update your Personal Information by writing to info@kitplugins.com.<\/p><p><span style=\"text-decoration:underline\"><strong>Links to Other Websites and Services<\/strong><\/span><\/p><p>The Website may contain links to various other sites. These sites may seek to collect from your user information voluntarily or may otherwise collect certain information (for example, your IP address). Please be aware that these other websites may have different privacy policies that may subject users to different privacy practices. Please review the privacy policies of such other websites for information concerning what information is collected on such websites and how it is used.<\/p><p>Our Website may also include social media features, such as the Facebook “like” button and widgets, the “Share this” button or other interactive mini-programs that run on our site. These features may collect your IP address, which page you are visiting on our site, and may set a cookie to enable the feature to function properly. Social media features and widgets are either hosted by a third party or hosted directly on our Website. Your interactions with these features are governed by the privacy policy of the company providing the feature, which we encourage you to review.<\/p><p><span style=\"text-decoration:underline\"><strong>Information Storage and Protection<\/strong><\/span><\/p><p>Kit Plugins will maintain reasonable procedures to protect the security and confidentiality of Personal Information provided to it by Registered Users, in accordance with applicable law.<\/p><p>There are industry standard safeguards in place to protect Registered Users’ Personal Information, such as the use of firewalls and SSL certificates, and limiting access to such information by company personnel. Personal Information will be stored in databases and servers located in the United States. However, no transmission made through the internet can be made completely secure, and accordingly, we will not, to the extent permitted by applicable law, be liable for the disclosure of any Users’ Personal Information that occurs as a result of, for example, transmission errors or the actions of any third party.<\/p><p>In the unlikely event that we determine that there may have been a security breach that results in the unauthorized disclosure of Personal Information to a third party, we will promptly notify Registered Users or any other Website users whose Personal Information it reasonably believes may have been compromised by posting information on the Website and, if email contact is possible, then also by sending an email notification with respect to the situation.<\/p><p><span style=\"text-decoration:underline\"><strong>Options to Review and Opt-Out Choices<br\/><\/strong><\/span><\/p><p>In addition to having the ability to opt-out of receiving electronic communications, such as emails from Kit Plugins (to unsubscribe, click “unsubscribe” button at the bottom of such emails), Registered Users may access, review and, in certain situations, update, revise and\/or delete certain Personal Information by accessing and editing their accounts on the Website or by sending an e-mail to us at info@kitplugins.com. Additionally, please note that while you may request the updating, revision or deletion of such information, a copy of the unrevised information may be maintained in our records after any such revision or deletion.<\/p><p>As the Website evolves, Registered Users may be offered additional options for reviewing and\/or editing Personal Information. Please check this Privacy Policy often to make sure you have reviewed the most recent version.<\/p><p>If for any reason you wish to discontinue the use of the Website and have your Personal Information removed from our database, please contact us at info@kitplugins.com.<\/p><p><span style=\"text-decoration:underline\"><strong>Changes in Policy<\/strong><\/span><\/p><p>From time to time, our Privacy Policy may change. We will post changes to the Privacy Policy on the Website. Please review this Privacy Policy often so that you will remain abreast of our current policies. Users of the Website are responsible for making sure they are aware of the provisions of our most current (see the date at the top of this Privacy Policy) Privacy Policy.<\/p><p><span style=\"text-decoration:underline\"><strong>Governing Law<\/strong><\/span><\/p><p>This Privacy Policy shall be governed by the laws of the State of New York of the United States of America, without regard to its conflict of law provisions. Please click here to review the terms relating to <strong>Disputes and Governing Law<\/strong> for this Website <a href=\"https:\/\/kitplugins.com\/\">https:\/\/kitplugins.com<\/a> and view the Terms document.<\/p><p><span style=\"text-decoration:underline\"><strong>Contact Us<\/strong><\/span><\/p><p>If you have any questions or complaints concerning this Privacy Policy or our handling of your Personal Information you may contact us at info@kitplugins.com<\/p>",
        "button_text": "",
        "button_link": "",
        "background_type": "full_width",
        "text_width": "large",
        "text_position": "center",
        "text_alignment": "center",
        "background": "rgba(0,0,0,0)",
        "text_color": "rgba(0,0,0,0)",
        "button_background": "rgba(0,0,0,0)",
        "button_text_color": "rgba(0,0,0,0)"
      }
    }
  },
  "order": [
    "main",
    "16343201006294099c"
  ]
}