{
  "sections": {
    "main": {
      "type": "main-page",
      "disabled": true,
      "settings": {
        "show_title": false,
        "page_width": "medium"
      }
    },
    "16342431619c7c9d41": {
      "type": "image-with-text-overlay",
      "settings": {
        "reveal_on_scroll": true,
        "section_height": "medium",
        "image": "shopify:\/\/shop_images\/kit-plugins.png",
        "subheading": "",
        "title": "About KIT Plugins",
        "content": "<p>KIT Plugins stems from an endless, and often over-caffeinated, pursuit of creating accessible and affordable audio tools for modern producers, mixers, and artists. We proudly focus on developing products that raise the standard for sound quality, functionality, and design. From our partnership with Blackbird Studio to our in-house state-of-the-art product line, we strive to offer every modern music maker the best of both analog-modeled and cutting-edge digital worlds.<\/p><p>KIT Plugins was founded in 2020 by seasoned audio engineer Matthew Kleinman, who originally cut his teeth in Los Angeles alongside legendary producer Howard Benson. Kleinman then transitioned to Nashville, TN, where he mixed for labels such as Big Machine and Epic Records, as well as countless independent artists in the contemporary Nashville scene.<\/p><p>Regardless of what we create at KIT Plugins, we will always maintain our mission of helping you achieve sonic excellence without breaking the bank.<\/p>",
        "button_text": "",
        "button_link": "",
        "button_add_to_cart": true,
        "button_class": "",
        "link_style": "link",
        "background_type": "full_width",
        "text_width": "large",
        "text_position": "middle_center",
        "text_color": "#ffffff",
        "button_background": "#ffffff",
        "button_text_color": "#000000",
        "overlay_color": "#000000",
        "overlay_opacity": 45
      }
    },
    "1634242925f17c8ff0": {
      "type": "gallery",
      "blocks": {
        "1634242925f17c8ff0-0": {
          "type": "image",
          "settings": {
            "image": "shopify:\/\/shop_images\/matthew-kleinman.jpg",
            "caption": "<p>Matthew Kleinman<\/p><p><em><strong>FOUNDER & CEO<\/strong><\/em><\/p><p>Matthew Kleinman is an audio engineer who's worked for some of the industry’s most prestigious producers, including Howard Benson, Aaron Pearce, and many more.<\/p><p>Prior to starting KIT Plugins, Kleinman worked for Writerslist Publishing in Nashville and holds a B.S. in Music Technology and Business from Drexel University. He’s also seen The Who live more than 30 times.<\/p>"
          }
        },
        "1634242925f17c8ff0-1": {
          "type": "image",
          "settings": {
            "image": "shopify:\/\/shop_images\/custom-2.jpg",
            "caption": "<p>Jim Collett<\/p><p><em><strong>CHIEF OPERATING OFFICER<\/strong><\/em><\/p><p>Jim Collett’s passion for music led him to pursue a Bachelor’s Degree in Music Business with a minor in Entrepreneurship from Middle Tennessee State University.<\/p><p>Prior to KIT Plugins, Jim held various positions with Adams Group Productions, Country Tonight Theatre, and Station West Recording Studio. He dreams of one day sailing the open seas on The Black Pearl.<\/p>"
          }
        },
        "1634242925f17c8ff0-2": {
          "type": "image",
          "settings": {
            "image": "shopify:\/\/shop_images\/kyle-lane-grant.jpg",
            "caption": "<p>Kyle Lane Grant<\/p><p><em><strong>MARKETING DIRECTOR<\/strong><\/em><\/p><p>Kyle Lane Grant hails from Los Angeles, CA and previously served as Marketing Director at Slate Digital, Steven Slate Drums, and Slate Media Technology.<\/p><p>A lifelong musician and audio engineer, the Los Angeles, CA native graduated cum laude from UCLA with a B.A., English Literature. He’s literally never seen Star Wars and never intends to.<\/p>"
          }
        },
        "6fb0cf6d-b76c-41a1-b8bf-2eafdb9426b3": {
          "type": "image",
          "settings": {
            "image": "shopify:\/\/shop_images\/andrew-de-loe-kit-plugins.jpg",
            "caption": "<p>Andrew De Loe<\/p><p><em><strong>ASSOCIATE ENGINEER<\/strong><\/em><\/p><p>Andrew De Loe is an audio engineer and producer from Atlanta, GA.<\/p><p>Before joining KIT, he attended the Blackbird Academy for Studio Recording and spent time honing his craft working at some of Nashville's most prestigious recording studios. Current obsession: Tom Anderson Guitars.<\/p>"
          }
        },
        "871b9412-1098-4d40-8942-ba2f583da463": {
          "type": "image",
          "settings": {
            "image": "shopify:\/\/shop_images\/cody-uhls-kit-plugins.jpg",
            "caption": "<p>Cody Uhls<\/p><p><em><strong>VISUAL CONTENT LEAD<\/strong><\/em><\/p><p>An independent photographer and videographer, Cody Uhls has a B.A. in Media and Entertainment and a minor in Journalism from Middle Tennessee State University.<\/p><p>As a photographer, Uhls has worked with the likes of Dolly Parton, The Swon Brothers, and American Idol alum Clark Beckham. He has a ridiculous love for Star Wars and hates that Kyle has never seen it.<\/p>"
          }
        },
        "0c78c313-e030-4ca5-882a-8d54f9d4fa42": {
          "type": "image",
          "settings": {
            "image": "shopify:\/\/shop_images\/Taven_Headshot.png",
            "caption": "<p>Taven Romesser<\/p><p><em><strong>MARKETING LEAD<\/strong><\/em><\/p><p>Taven Romesser is a musician, producer, and marketing specialist. Prior to KIT, he worked in event operations at Live Nation.<\/p><p>Romesser writes and produces music across all genres and is an accomplished multi-instrumentalist. He often wishes he wrote the theme to The Office.<\/p>"
          }
        }
      },
      "block_order": [
        "1634242925f17c8ff0-0",
        "1634242925f17c8ff0-1",
        "1634242925f17c8ff0-2",
        "6fb0cf6d-b76c-41a1-b8bf-2eafdb9426b3",
        "871b9412-1098-4d40-8942-ba2f583da463",
        "0c78c313-e030-4ca5-882a-8d54f9d4fa42"
      ],
      "settings": {
        "subheading": "",
        "title": "Meet the team",
        "show_arrows": false,
        "background": "rgba(0,0,0,0)",
        "text_color": "rgba(0,0,0,0)"
      }
    }
  },
  "order": [
    "main",
    "16342431619c7c9d41",
    "1634242925f17c8ff0"
  ]
}