{
  "sections": {
    "main": {
      "type": "main-page",
      "disabled": true,
      "settings": {
        "show_title": false,
        "page_width": "medium"
      }
    },
    "1634152373ed55a664": {
      "type": "slideshow",
      "blocks": {
        "1634152373ed55a664-0": {
          "type": "image",
          "settings": {
            "image": "shopify:\/\/shop_images\/BBN_V1_Banner_copy.png",
            "mobile_image": "shopify:\/\/shop_images\/unnamed.png",
            "text_position": "middle_left",
            "subheading": "AVAILABLE NOW — $99.00",
            "title": "BB N105 CHANNEL STRIP V1",
            "button_1_text": "BUY NOW FOR $99",
            "button_1_link": "shopify:\/\/products\/kit-bb-n105",
            "button_1_add_to_cart": true,
            "button_1_class": "",
            "button_1_new_window": false,
            "button_2_text": "TRY FREE FOR 14 DAYS",
            "button_2_link": "shopify:\/\/pages\/downloads",
            "button_2_add_to_cart": false,
            "button_2_class": "",
            "button_2_new_window": false,
            "text_color": "#ffffff",
            "button_background": "#ff6a00",
            "button_text_color": "#ffffff",
            "overlay_color": "#000000",
            "overlay_opacity": 0
          }
        }
      },
      "block_order": [
        "1634152373ed55a664-0"
      ],
      "settings": {
        "download_page": "downloads",
        "section_height": "medium",
        "transition_type": "sweep",
        "autoplay": false,
        "cycle_speed": 5,
        "background": "rgba(0,0,0,0)"
      }
    },
    "1634152795a96f7952": {
      "type": "rich-text",
      "settings": {
        "subheading": "",
        "title": "THE LEGENDARY SOUND OF BLACKBIRD’S STUDIO A CONSOLE IN YOUR DAW",
        "content": "<p>Add the same punch, depth, saturation, imaging, and tonal impact heard on countless hit recordings by artists such as <strong>Kings of Leon, Neil Young, Taylor Swift, Rush, Alice in Chains, Dolly Parton, Megadeth, Martina McBride, Stone Sour, Keith Urban, Daughtry, Beartooth, and more!<\/strong><\/p>",
        "button_text": "BUY NOW FOR $99",
        "button_link": "shopify:\/\/products\/kit-bb-n105",
        "button_add_to_cart": true,
        "button_class": "",
        "background_type": "full_width",
        "text_width": "large",
        "text_position": "center",
        "text_alignment": "center",
        "background": "rgba(0,0,0,0)",
        "text_color": "rgba(0,0,0,0)",
        "button_background": "rgba(0,0,0,0)",
        "button_text_color": "rgba(0,0,0,0)"
      }
    },
    "16341534958f7e6d12": {
      "type": "logo-list",
      "blocks": {
        "16341534958f7e6d12-0": {
          "type": "logo",
          "settings": {
            "logo": "shopify:\/\/shop_images\/Kings_of_Leon-Only_by_the_Night.jpg",
            "link": ""
          }
        },
        "16341534958f7e6d12-1": {
          "type": "logo",
          "settings": {
            "logo": "shopify:\/\/shop_images\/The_Killers_-_Battle_Born.png",
            "link": ""
          }
        },
        "16341534958f7e6d12-2": {
          "type": "logo",
          "settings": {
            "logo": "shopify:\/\/shop_images\/Beck-Morning_Phase.jpg",
            "link": ""
          }
        },
        "16341534958f7e6d12-3": {
          "type": "logo",
          "settings": {
            "logo": "shopify:\/\/shop_images\/Taylor_Swift-Red.jpg",
            "link": ""
          }
        },
        "16341534958f7e6d12-4": {
          "type": "logo",
          "settings": {
            "logo": "shopify:\/\/shop_images\/Beartooth-Disease.jpg",
            "link": ""
          }
        },
        "16341534958f7e6d12-5": {
          "type": "logo",
          "settings": {
            "logo": "shopify:\/\/shop_images\/Stone_Sour-Audio_Secrecy.jpg",
            "link": ""
          }
        },
        "21641650-e6c8-4f20-b367-c3fd03c1d8b4": {
          "type": "logo",
          "settings": {
            "logo": "shopify:\/\/shop_images\/Rush-Caravan.jpg",
            "link": ""
          }
        },
        "f336db70-72d8-434b-9f09-b34f5ae590bc": {
          "type": "logo",
          "settings": {
            "logo": "shopify:\/\/shop_images\/ManchesterO-Everything_to_Nothing.jpg",
            "link": ""
          }
        },
        "566cd30d-6cc0-4d61-8606-34b2de6a084a": {
          "type": "logo",
          "settings": {
            "logo": "shopify:\/\/shop_images\/Dolly_Parton-Backwoods_Barbie.jpg",
            "link": ""
          }
        },
        "9e436b71-3b44-4933-8083-4768f0535932": {
          "type": "logo",
          "settings": {
            "logo": "shopify:\/\/shop_images\/MMJ-Circuital.png",
            "link": ""
          }
        },
        "557c8192-0b70-4178-a716-f188d4797f1f": {
          "type": "logo",
          "settings": {
            "logo": "shopify:\/\/shop_images\/Martina_Mcbride-Eleven.jpg",
            "link": ""
          }
        },
        "9c2d8e50-8dbf-43b7-887e-6e1b229c8d39": {
          "type": "logo",
          "settings": {
            "logo": "shopify:\/\/shop_images\/Daughtry-Leave_this_town.jpg",
            "link": ""
          }
        }
      },
      "block_order": [
        "16341534958f7e6d12-0",
        "16341534958f7e6d12-1",
        "16341534958f7e6d12-2",
        "16341534958f7e6d12-3",
        "16341534958f7e6d12-4",
        "16341534958f7e6d12-5",
        "21641650-e6c8-4f20-b367-c3fd03c1d8b4",
        "f336db70-72d8-434b-9f09-b34f5ae590bc",
        "566cd30d-6cc0-4d61-8606-34b2de6a084a",
        "9e436b71-3b44-4933-8083-4768f0535932",
        "557c8192-0b70-4178-a716-f188d4797f1f",
        "9c2d8e50-8dbf-43b7-887e-6e1b229c8d39"
      ],
      "settings": {
        "reveal_on_scroll": true,
        "subheading": "",
        "title": "THE SAME CONSOLE SOUND HEARD ON COUNTLESS CHART-TOPPING RECORDS",
        "button_text": "BUY NOW FOR $99",
        "button_link": "shopify:\/\/products\/kit-bb-n105",
        "button_add_to_cart": true,
        "stack_logos": true,
        "background": "#06121d",
        "text_color": "rgba(0,0,0,0)",
        "button_background": "rgba(0,0,0,0)",
        "button_text_color": "rgba(0,0,0,0)",
        "logo_background": "rgba(0,0,0,0)"
      }
    },
    "163415417255e825ad": {
      "type": "image-with-text-overlay",
      "settings": {
        "reveal_on_scroll": true,
        "section_height": "small",
        "image": "shopify:\/\/shop_images\/blackbird-neve-plugin.jpg",
        "subheading": "",
        "title": "THE NEVE 8078 CONSOLE",
        "content": "<p>Blackbird’s Studio A console is literally a monument of music legend. After John McBride acquired the console in 2001, it underwent a breakthrough restoration process to bring it to its original heavyweight glory. The console then received a series of cutting-edge modifications from some of the most brilliant minds in the audio industry, making it not only extremely unique, but also arguably the best model of its namesake ever to exist!<\/p>",
        "button_text": "TRY FREE FOR 14 DAYS",
        "button_link": "shopify:\/\/pages\/downloads",
        "button_add_to_cart": false,
        "button_class": "",
        "link_style": "button",
        "background_type": "full_width",
        "text_width": "large",
        "text_position": "middle_center",
        "text_color": "#ffffff",
        "button_background": "#ff6a00",
        "button_text_color": "#ffffff",
        "overlay_color": "#000000",
        "overlay_opacity": 85
      }
    },
    "16341550382cf5cc1b": {
      "type": "video",
      "settings": {
        "subheading": "",
        "title": "ADD ONE OF THE WORLD’S ELITE ANALOG CONSOLES TO YOUR MIXES TODAY",
        "video_url": "https:\/\/youtu.be\/Do-3-JhL7LA",
        "image": "shopify:\/\/shop_images\/neve-console-blackbird.jpg",
        "background_type": "boxed",
        "video_size": "small",
        "autoplay": false,
        "background": "rgba(0,0,0,0)",
        "text_color": "rgba(0,0,0,0)"
      }
    },
    "1634155560b3ae66d9": {
      "type": "image-with-text-overlay",
      "settings": {
        "reveal_on_scroll": true,
        "section_height": "medium",
        "image": "shopify:\/\/shop_images\/BBN_Schematics.png",
        "subheading": "",
        "title": "ANALOG MODELING JUST GOT REAL",
        "content": "<p>We carefully examined the console’s distinct makeup, from factory schematics to the workflows of top producers and engineers to fully understand what makes it so unique. Our engineers painstakingly sampled every last remarkable sonic aspect — saturation, equalization, noise, distortion, depth, width, and musicality.<\/p><p>Our mission was to create a plugin that truly embodied the sound of recording in Blackbird’s legendary Studio A. Utilizing John’s personal favorite A\/D converters, we truly believe we captured the sound of this one-of-a-kind Neve 8078 in all its glory!<\/p>",
        "button_text": "BUY NOW FOR $99",
        "button_link": "shopify:\/\/products\/kit-bb-n105",
        "button_add_to_cart": true,
        "button_class": "",
        "link_style": "button",
        "background_type": "full_width",
        "text_width": "large",
        "text_position": "middle_center",
        "text_color": "#ffffff",
        "button_background": "#ff6a00",
        "button_text_color": "#ffffff",
        "overlay_color": "#000000",
        "overlay_opacity": 66
      }
    },
    "1634158517f3510d9c": {
      "type": "image-with-text",
      "blocks": {
        "1634158517f3510d9c-0": {
          "type": "item",
          "settings": {
            "image": "shopify:\/\/shop_images\/unnamed_1200x_84572096-6f46-4874-9467-1287303a9b2a.png",
            "tab_label": "",
            "subheading": "AVAILABLE NOW — $99.00",
            "title": "BB N105 Channel Strip",
            "content": "<p>Hear your mixes through this iconic console emulation today! Punch, depth, saturation, and legendary tonal impact. It's ALL here. Analog magic in its purest form.<\/p>",
            "button_text": "BUY NOW FOR $99",
            "button_link": "shopify:\/\/products\/kit-bb-n105",
            "button_add_to_cart": true,
            "button_class": ""
          }
        }
      },
      "block_order": [
        "1634158517f3510d9c-0"
      ],
      "settings": {
        "reveal_on_scroll": true,
        "background_type": "full_width",
        "background_overlap": "both",
        "image_position": "left",
        "cycle_speed": 3,
        "accent_background": "#000000",
        "text_color": "rgba(0,0,0,0)",
        "button_background": "rgba(0,0,0,0)",
        "button_text_color": "rgba(0,0,0,0)"
      }
    },
    "1634157866b6f5a3e0": {
      "type": "multi-column",
      "blocks": {
        "1634157866b6f5a3e0-0": {
          "type": "item",
          "settings": {
            "image_border": "rgba(0,0,0,0)",
            "title": "Minimum System Requirements",
            "content": "<p><\/p><p><strong>FREE iLok License Manager and iLok account required<\/strong><\/p><p><strong>No iLok USB dongle required<\/strong><\/p><p><strong>iLok computer activation not supported, cloud and dongle only<\/strong><\/p><p><strong>iLok 2 or 3 dongle are supported (not iLok 1)<\/strong><\/p><p>4 GB RAM and 4 GB free disk space<\/p><p>macOS 10.11 or later (Intel only, M1 not natively supported yet)<\/p><p>Apple M1 (ARM-based) processors are not tested yet<\/p><p>Windows 7 (64-bit only) or Windows 10<\/p><p>64-bit operating system<\/p><p>Intel i3 or later<\/p><p>AMD Quad-Core (Windows)<\/p>",
            "link_text": "",
            "link_url": "",
            "link_style": "link",
            "text_alignment": "center"
          }
        },
        "1634157866b6f5a3e0-1": {
          "type": "item",
          "settings": {
            "image_border": "rgba(0,0,0,0)",
            "title": "Distribution Formats",
            "content": "<p><\/p><p>VST3 (Steinberg Virtual Studio Technology 3)<\/p><p>AU (macOS Audio Unit)<\/p><p>AAX (Avid Audio Extension)<\/p><p><strong>compatible with all major DAWs<\/strong> (Digital Audio Workstations) that support the formats mentioned above<\/p><p>supports mono and stereo signals<\/p><p>Plugindoctor not tested or supported<\/p><p>VST3 not compatible with Blue Cat Patchwork (use AU instead)<\/p>",
            "link_text": "",
            "link_url": "",
            "link_style": "link",
            "text_alignment": "center"
          }
        }
      },
      "block_order": [
        "1634157866b6f5a3e0-0",
        "1634157866b6f5a3e0-1"
      ],
      "settings": {
        "reveal_on_scroll": true,
        "stack_items": true,
        "subheading": "",
        "title": "",
        "content": "",
        "column_alignment": "center",
        "mobile_item_size": "medium",
        "desktop_item_size": "large",
        "spacing": "loose",
        "background": "#06121d",
        "text_color": "#ffffff"
      }
    },
    "163423069900bf0aee": {
      "type": "newsletter",
      "settings": {
        "reveal_on_scroll": true,
        "image": "shopify:\/\/shop_images\/neve-console-blackbird.jpg",
        "subheading": "STAY UP ON THE LATEST AND GREATEST",
        "content": "<p>Get EXCLUSIVE discounts, FREE full-length mix tutorials, FREE plugins, and some other pretty rad sh*t that we currently aren’t at liberty to discuss.<\/p>",
        "text_position": "center",
        "text_alignment": "center",
        "text_background": "rgba(0,0,0,0)",
        "text_color": "rgba(0,0,0,0)",
        "button_background": "rgba(0,0,0,0)",
        "button_text_color": "rgba(0,0,0,0)"
      }
    },
    "1634218695899086da": {
      "type": "rich-text",
      "settings": {
        "subheading": "",
        "title": "Disclaimer",
        "content": "<p>All names, logos and trademarks of studio equipment and\/or accessory brands are the property of their respective manufacturers and are in no way affiliated with KIT Plugins or its affiliates. None of the aforementioned name, logo or trademark owners were involved in the making of this product, nor do they endorse it. This plugin was made by KIT Plugins and John McBride at Blackbird Studio to represent the unique sound and quality of Blackbird. The names, logos and trademarks used are only for the purpose of identifying the hardware chain that was used to create this product.<\/p>",
        "button_text": "",
        "button_link": "",
        "button_add_to_cart": true,
        "button_class": "",
        "background_type": "full_width",
        "text_width": "large",
        "text_position": "center",
        "text_alignment": "center",
        "background": "rgba(0,0,0,0)",
        "text_color": "rgba(0,0,0,0)",
        "button_background": "rgba(0,0,0,0)",
        "button_text_color": "rgba(0,0,0,0)"
      }
    }
  },
  "order": [
    "main",
    "1634152373ed55a664",
    "1634152795a96f7952",
    "16341534958f7e6d12",
    "163415417255e825ad",
    "16341550382cf5cc1b",
    "1634155560b3ae66d9",
    "1634158517f3510d9c",
    "1634157866b6f5a3e0",
    "163423069900bf0aee",
    "1634218695899086da"
  ]
}